com\its\callbot\callmanage\threads\Agent.class
com\its\callbot\callmanage\services\impl\BlackListServiceImpl.class
com\its\callbot\callmanage\services\impl\ConfigServiceImpl.class
com\its\callbot\callmanage\services\impl\WhitelistServiceImpl.class
com\its\callbot\callmanage\threads\call\TimeBaseProcess.class
com\its\callbot\callmanage\services\CampaignActionServices.class
com\its\callbot\callmanage\threads\call\CampaignProcess.class
com\its\callbot\CallManageApplication.class
com\its\callbot\callmanage\utils\TimerValidator.class
com\its\callbot\callmanage\services\WhitelistService.class
com\its\callbot\callmanage\services\CallConversationService.class
com\its\callbot\callmanage\services\ConfigService.class
com\its\callbot\callmanage\services\impl\CallConversationServiceImpl.class
com\its\callbot\callmanage\repositories\CampaignActionExtRepository.class
com\its\callbot\callmanage\repositories\CampaignActionExtRepositoryCustom.class
com\its\callbot\callmanage\services\CallLogService.class
com\its\callbot\callmanage\services\impl\CampaignServicesImpl.class
com\its\callbot\callmanage\services\impl\SpecialCustomerService.class
com\its\callbot\callmanage\repositories\CallRepositoryCustom.class
com\its\callbot\callmanage\services\CampaignServices.class
com\its\callbot\callmanage\services\BlackListService.class
com\its\callbot\callmanage\config\AppConfig.class
com\its\callbot\callmanage\threads\call\CampaignManager.class
com\its\callbot\callmanage\repositories\impl\CallRepositoryCustomImpl.class
com\its\callbot\callmanage\threads\call\CalloutTask.class
com\its\callbot\callmanage\threads\call\CampaignActionProcess.class
com\its\callbot\callmanage\repositories\CallRepository.class
com\its\callbot\callmanage\threads\init\CallInitSchedule.class
com\its\callbot\callmanage\services\impl\CallLogServiceImpl.class
com\its\callbot\callmanage\threads\init\CallInitTask.class
com\its\callbot\callmanage\repositories\impl\CampaignActionExtRepositoryCustomImpl.class
com\its\callbot\callmanage\services\impl\CampaignActionServicesImpl.class
