com\its\callbot\bot\dto\CallUpdateResponse.class
com\its\callbot\bot\CallBotCommunication.class
com\its\callbot\bot\dto\CallUpdateRequest.class
com\its\callbot\bot\dto\CreateCallResponse.class
com\its\callbot\bot\dto\BotDTOFactory.class
com\its\callbot\bot\dto\CreateCallRequest.class
com\its\callbot\bot\dto\CallOutRequest.class
com\its\callbot\bot\dto\CallOutResponse.class
